1AC/lab3/transcript
cd C:/Users/MadimDell/Desktop/Ac/lab3
ls
# fac.v  transcript                                                                              
do run_fac.txt
# fac.v
# fac_tb
# Model Technology ModelSim - Intel FPGA Edition vlog 10.5b Compiler 2016.10 Oct  5 2016
# Start time: 16:08:57 on Nov 05,2023
# vlog -reportprogress 300 fac.v 
# -- Compiling module fac
# -- Compiling module fac_tb
# 
# Top level modules:
# 	fac_tb
# End time: 16:08:57 on Nov 05,2023, Elapsed time: 0:00:00
# Errors: 0, Warnings: 0
# vsim -voptargs="+acc" fac_tb 
# Start time: 16:08:58 on Nov 05,2023
# Loading work.fac_tb
# Loading work.fac
# 0 0
# 0 1
# 0 1
# 1 0
# 0 1
# 1 0
# 1 0
# 1 1
# End time: 16:09:03 on Nov 05,2023, Elapsed time: 0:00:05
# Errors: 0, Warnings: 0
do run_add2b.txt
# add2b.v
# add2b_tb
# Model Technology ModelSim - Intel FPGA Edition vlog 10.5b Compiler 2016.10 Oct  5 2016
# Start time: 16:26:48 on Nov 05,2023
# vlog -reportprogress 300 add2b.v 
# -- Compiling module fac
# -- Compiling module add2b
# -- Compiling module add2b_tb
# ** Error: add2b.v(36): (vlog-2110) Illegal reference to memory "x_tb".
# ** Error: add2b.v(36): (vlog-2110) Illegal reference to net array "#implicit-wire#1".
# ** Error: add2b.v(36): (vlog-2110) Illegal reference to memory "x_tb".
# ** Error: add2b.v(35): (vlog-2110) Illegal reference to memory "y_tb".
# ** Error: add2b.v(35): (vlog-2110) Illegal reference to net array "#implicit-wire#0".
# ** Error: add2b.v(35): (vlog-2110) Illegal reference to memory "y_tb".
# ** Error: add2b.v(35): (vlog-2110) Illegal reference to net array "#implicit-wire#0".
# ** Error: add2b.v(36): (vlog-2110) Illegal reference to net array "#implicit-wire#1".
# ** Error: add2b.v(39): (vlog-2110) Illegal reference to net array "z_tb".
# ** Error: add2b.v(43): (vlog-2110) Illegal reference to memory "y_tb".
# ** Error: add2b.v(43): (vlog-2110) Illegal reference to memory "x_tb".
# ** Error (suppressible): add2b.v(43): (vlog-2251) Illegal concatenation of unpacked value.
# ** Error (suppressible): add2b.v(43): (vlog-2251) Illegal concatenation of unpacked value.
# ** Error: add2b.v(43): Illegal LHS of assignment.
# ** Error: add2b.v(46): (vlog-2110) Illegal reference to memory "y_tb".
# ** Error: add2b.v(46): (vlog-2110) Illegal reference to memory "x_tb".
# ** Error (suppressible): add2b.v(46): (vlog-2251) Illegal concatenation of unpacked value.
# ** Error (suppressible): add2b.v(46): (vlog-2251) Illegal concatenation of unpacked value.
# ** Error: add2b.v(46): Illegal LHS of assignment.
# End time: 16:26:48 on Nov 05,2023, Elapsed time: 0:00:00
# Errors: 19, Warnings: 0
do run_add2b.txt
# add2b.v
# add2b_tb
# Model Technology ModelSim - Intel FPGA Edition vlog 10.5b Compiler 2016.10 Oct  5 2016
# Start time: 16:29:56 on Nov 05,2023
# vlog -reportprogress 300 add2b.v 
# -- Compiling module fac
# -- Compiling module add2b
# -- Compiling module add2b_tb
# 
# Top level modules:
# 	add2b_tb
# End time: 16:29:56 on Nov 05,2023, Elapsed time: 0:00:00
# Errors: 0, Warnings: 0
# vsim -voptargs="+acc" add2b_tb 
# Start time: 16:29:57 on Nov 05,2023
# Loading work.add2b_tb
# Loading work.add2b
# Loading work.fac
# 00 00 0 0 00
# 00 00 1 0 01
# 00 01 0 0 01
# 00 01 1 0 10
# 00 10 0 0 10
# 00 10 1 0 11
# 00 11 0 0 11
# 00 11 1 1 00
# 01 00 0 0 01
# 01 00 1 0 10
# 01 01 0 0 10
# 01 01 1 0 11
# 01 10 0 0 11
# 01 10 1 1 00
# 01 11 0 1 00
# 01 11 1 1 01
# 10 00 0 0 10
# 10 00 1 0 11
# 10 01 0 0 11
# 10 01 1 1 00
# 10 10 0 1 00
# 10 10 1 1 01
# 10 11 0 1 01
# 10 11 1 1 10
# 11 00 0 0 11
# 11 00 1 1 00
# 11 01 0 1 00
# 11 01 1 1 01
# 11 10 0 1 01
# 11 10 1 1 10
# 11 11 0 1 10
# 11 11 1 1 11
# End time: 16:30:00 on Nov 05,2023, Elapsed time: 0:00:03
# Errors: 0, Warnings: 0
do cmp2b.txt
# cmp4b.v
# cmp4b_tb
# Model Technology ModelSim - Intel FPGA Edition vlog 10.5b Compiler 2016.10 Oct  5 2016
# Start time: 17:02:04 on Nov 05,2023
# vlog -reportprogress 300 cmp4b.v 
# ** Error: (vlog-7) Failed to open design unit file "cmp4b.v" in read mode.
# No such file or directory. (errno = ENOENT)
# End time: 17:02:04 on Nov 05,2023, Elapsed time: 0:00:00
# Errors: 1, Warnings: 0
do cmp2b.txt
# cmp2b.v
# cmp4b_tb
# Model Technology ModelSim - Intel FPGA Edition vlog 10.5b Compiler 2016.10 Oct  5 2016
# Start time: 17:02:48 on Nov 05,2023
# vlog -reportprogress 300 cmp2b.v 
# -- Compiling module cmp2b
# ** Error: (vlog-13038) cmp2b.v(6): near ")": Missing port in ansi port list.
# End time: 17:02:49 on Nov 05,2023, Elapsed time: 0:00:01
# Errors: 1, Warnings: 0
do cmp2b.txt
# cmp2b.v
# cmp4b_tb
# Model Technology ModelSim - Intel FPGA Edition vlog 10.5b Compiler 2016.10 Oct  5 2016
# Start time: 17:03:07 on Nov 05,2023
# vlog -reportprogress 300 cmp2b.v 
# -- Compiling module cmp2b
# ** Error: (vlog-13038) cmp2b.v(6): near ")": Missing port in ansi port list.
# End time: 17:03:07 on Nov 05,2023, Elapsed time: 0:00:00
# Errors: 1, Warnings: 0
do cmp2b.txt
# cmp2b.v
# cmp4b_tb
# Model Technology ModelSim - Intel FPGA Edition vlog 10.5b Compiler 2016.10 Oct  5 2016
# Start time: 17:03:27 on Nov 05,2023
# vlog -reportprogress 300 cmp2b.v 
# -- Compiling module cmp2b
# -- Compiling module cmp4b
# ** Error: (vlog-13038) cmp2b.v(16): near ")": Missing port in ansi port list.
# End time: 17:03:27 on Nov 05,2023, Elapsed time: 0:00:00
# Errors: 1, Warnings: 0
do cmp2b.txt
# cmp2b.v
# cmp4b_tb
# Model Technology ModelSim - Intel FPGA Edition vlog 10.5b Compiler 2016.10 Oct  5 2016
# Start time: 17:03:55 on Nov 05,2023
# vlog -reportprogress 300 cmp2b.v 
# -- Compiling module cmp2b
# -- Compiling module cmp4b
# ** Error: cmp2b.v(25): (vlog-2730) Undefined variable: 'eg'.
# -- Compiling module cmp4b_tb
# ** Error: (vlog-13069) cmp2b.v(40): near "wire": syntax error, unexpected wire, expecting IDENTIFIER or TYPE_IDENTIFIER or NETTYPE_IDENTIFIER.
# ** Error: cmp2b.v(52): (vlog-2730) Undefined variable: 'ci_tb'.
# End time: 17:03:55 on Nov 05,2023, Elapsed time: 0:00:00
# Errors: 3, Warnings: 0
do cmp2b.txt
# cmp2b.v
# cmp4b_tb
# Model Technology ModelSim - Intel FPGA Edition vlog 10.5b Compiler 2016.10 Oct  5 2016
# Start time: 17:04:53 on Nov 05,2023
# vlog -reportprogress 300 cmp2b.v 
# -- Compiling module cmp2b
# -- Compiling module cmp4b
# ** Error: cmp2b.v(25): The generate if condition must be a constant expression.
# -- Compiling module cmp4b_tb
# End time: 17:04:53 on Nov 05,2023, Elapsed time: 0:00:00
# Errors: 1, Warnings: 0
do cmp2b.txt
# cmp2b.v
# cmp4b_tb
# Model Technology ModelSim - Intel FPGA Edition vlog 10.5b Compiler 2016.10 Oct  5 2016
# Start time: 17:09:03 on Nov 05,2023
# vlog -reportprogress 300 cmp2b.v 
# -- Compiling module cmp2b
# -- Compiling module cmp4b
# -- Compiling module cmp4b_tb
# 
# Top level modules:
# 	cmp4b
# 	cmp4b_tb
# End time: 17:09:04 on Nov 05,2023, Elapsed time: 0:00:01
# Errors: 0, Warnings: 0
# vsim -voptargs="+acc" cmp4b_tb 
# Start time: 17:09:04 on Nov 05,2023
# Loading work.cmp4b_tb
# ** Error: (vsim-3033) cmp2b.v(43): Instantiation of 'add2b' failed. The design unit was not found.
#    Time: 0 ps  Iteration: 0  Instance: /cmp4b_tb File: cmp2b.v
#         Searched libraries:
#             C:/Users/MadimDell/Desktop/Ac/lab3/work
# Error loading design
# Error: Error loading design
#        Pausing macro execution
# MACRO ./cmp2b.txt PAUSED at line 25
do run_add2b.txt
# add2b.v
# add2b_tb
# End time: 17:09:47 on Nov 05,2023, Elapsed time: 0:00:43
# Errors: 1, Warnings: 0
# Model Technology ModelSim - Intel FPGA Edition vlog 10.5b Compiler 2016.10 Oct  5 2016
# Start time: 17:09:47 on Nov 05,2023
# vlog -reportprogress 300 add2b.v 
# -- Compiling module fac
# -- Compiling module add2b
# -- Compiling module add2b_tb
# 
# Top level modules:
# 	add2b_tb
# End time: 17:09:47 on Nov 05,2023, Elapsed time: 0:00:00
# Errors: 0, Warnings: 0
# vsim -voptargs="+acc" add2b_tb 
# Start time: 17:09:47 on Nov 05,2023
# Loading work.add2b_tb
# Loading work.add2b
# Loading work.fac
# 00 00 0 0 00
# 00 00 1 0 01
# 00 01 0 0 01
# 00 01 1 0 10
# 00 10 0 0 10
# 00 10 1 0 11
# 00 11 0 0 11
# 00 11 1 1 00
# 01 00 0 0 01
# 01 00 1 0 10
# 01 01 0 0 10
# 01 01 1 0 11
# 01 10 0 0 11
# 01 10 1 1 00
# 01 11 0 1 00
# 01 11 1 1 01
# 10 00 0 0 10
# 10 00 1 0 11
# 10 01 0 0 11
# 10 01 1 1 00
# 10 10 0 1 00
# 10 10 1 1 01
# 10 11 0 1 01
# 10 11 1 1 10
# 11 00 0 0 11
# 11 00 1 1 00
# 11 01 0 1 00
# 11 01 1 1 01
# 11 10 0 1 01
# 11 10 1 1 10
# 11 11 0 1 10
# 11 11 1 1 11
# End time: 17:09:50 on Nov 05,2023, Elapsed time: 0:00:03
# Errors: 0, Warnings: 0
do cmp2b.txt
# cmp2b.v
# cmp4b_tb
# Model Technology ModelSim - Intel FPGA Edition vlog 10.5b Compiler 2016.10 Oct  5 2016
# Start time: 17:10:38 on Nov 05,2023
# vlog -reportprogress 300 cmp2b.v 
# -- Compiling module cmp2b
# -- Compiling module cmp4b
# -- Compiling module cmp4b_tb
# 
# Top level modules:
# 	cmp4b_tb
# End time: 17:10:38 on Nov 05,2023, Elapsed time: 0:00:00
# Errors: 0, Warnings: 0
# vsim -voptargs="+acc" cmp4b_tb 
# Start time: 17:10:38 on Nov 05,2023
# Loading work.cmp4b_tb
# Loading work.cmp4b
# Loading work.cmp2b
# 0000 0000 z 0 0
# 0000 0001 z 0 1
# 0000 0010 z 0 1
# 0000 0011 z 0 1
# 0000 0100 z 0 1
# 0000 0101 z 0 1
# 0000 0110 z 0 1
# 0000 0111 z 0 1
# 0000 1000 z 0 1
# 0000 1001 z 0 1
# 0000 1010 z 0 1
# 0000 1011 z 0 1
# 0000 1100 z 0 1
# 0000 1101 z 0 1
# 0000 1110 z 0 1
# 0000 1111 z 0 1
# 0001 0000 z 1 0
# 0001 0001 z 0 0
# 0001 0010 z 0 1
# 0001 0011 z 0 1
# 0001 0100 z 0 1
# 0001 0101 z 0 1
# 0001 0110 z 0 1
# 0001 0111 z 0 1
# 0001 1000 z 0 1
# 0001 1001 z 0 1
# 0001 1010 z 0 1
# 0001 1011 z 0 1
# 0001 1100 z 0 1
# 0001 1101 z 0 1
# 0001 1110 z 0 1
# 0001 1111 z 0 1
# 0010 0000 z 1 0
# 0010 0001 z 1 0
# 0010 0010 z 0 0
# 0010 0011 z 1 0
# 0010 0100 z 0 1
# 0010 0101 z 0 1
# 0010 0110 z 0 1
# 0010 0111 z 0 1
# 0010 1000 z 0 1
# 0010 1001 z 0 1
# 0010 1010 z 0 1
# 0010 1011 z 0 1
# 0010 1100 z 0 1
# 0010 1101 z 0 1
# 0010 1110 z 0 1
# 0010 1111 z 0 1
# 0011 0000 z 1 0
# 0011 0001 z 1 0
# 0011 0010 z 0 1
# 0011 0011 z 0 0
# 0011 0100 z 0 1
# 0011 0101 z 0 1
# 0011 0110 z 0 1
# 0011 0111 z 0 1
# 0011 1000 z 0 1
# 0011 1001 z 0 1
# 0011 1010 z 0 1
# 0011 1011 z 0 1
# 0011 1100 z 0 1
# 0011 1101 z 0 1
# 0011 1110 z 0 1
# 0011 1111 z 0 1
# 0100 0000 z 1 0
# 0100 0001 z 1 0
# 0100 0010 z 1 0
# 0100 0011 z 1 0
# 0100 0100 z 0 0
# 0100 0101 z 0 1
# 0100 0110 z 0 1
# 0100 0111 z 0 1
# 0100 1000 z 0 1
# 0100 1001 z 0 1
# 0100 1010 z 0 1
# 0100 1011 z 0 1
# 0100 1100 z 0 1
# 0100 1101 z 0 1
# 0100 1110 z 0 1
# 0100 1111 z 0 1
# 0101 0000 z 1 0
# 0101 0001 z 1 0
# 0101 0010 z 1 0
# 0101 0011 z 1 0
# 0101 0100 z 1 0
# 0101 0101 z 0 0
# 0101 0110 z 0 1
# 0101 0111 z 0 1
# 0101 1000 z 0 1
# 0101 1001 z 0 1
# 0101 1010 z 0 1
# 0101 1011 z 0 1
# 0101 1100 z 0 1
# 0101 1101 z 0 1
# 0101 1110 z 0 1
# 0101 1111 z 0 1
# 0110 0000 z 1 0
# 0110 0001 z 1 0
# 0110 0010 z 1 0
# 0110 0011 z 1 0
# 0110 0100 z 1 0
# 0110 0101 z 1 0
# 0110 0110 z 0 0
# 0110 0111 z 1 0
# 0110 1000 z 0 1
# 0110 1001 z 0 1
# 0110 1010 z 0 1
# 0110 1011 z 0 1
# 0110 1100 z 0 1
# 0110 1101 z 0 1
# 0110 1110 z 0 1
# 0110 1111 z 0 1
# 0111 0000 z 1 0
# 0111 0001 z 1 0
# 0111 0010 z 1 0
# 0111 0011 z 1 0
# 0111 0100 z 1 0
# 0111 0101 z 1 0
# 0111 0110 z 0 1
# 0111 0111 z 0 0
# 0111 1000 z 0 1
# 0111 1001 z 0 1
# 0111 1010 z 0 1
# 0111 1011 z 0 1
# 0111 1100 z 0 1
# 0111 1101 z 0 1
# 0111 1110 z 0 1
# 0111 1111 z 0 1
# 1000 0000 z 1 0
# 1000 0001 z 1 0
# 1000 0010 z 1 0
# 1000 0011 z 1 0
# 1000 0100 z 1 0
# 1000 0101 z 1 0
# 1000 0110 z 1 0
# 1000 0111 z 1 0
# 1000 1000 z 0 0
# 1000 1001 z 0 1
# 1000 1010 z 0 1
# 1000 1011 z 0 1
# 1000 1100 z 1 0
# 1000 1101 z 1 0
# 1000 1110 z 1 0
# 1000 1111 z 1 0
# 1001 0000 z 1 0
# 1001 0001 z 1 0
# 1001 0010 z 1 0
# 1001 0011 z 1 0
# 1001 0100 z 1 0
# 1001 0101 z 1 0
# 1001 0110 z 1 0
# 1001 0111 z 1 0
# 1001 1000 z 1 0
# 1001 1001 z 0 0
# 1001 1010 z 0 1
# 1001 1011 z 0 1
# 1001 1100 z 1 0
# 1001 1101 z 1 0
# 1001 1110 z 1 0
# 1001 1111 z 1 0
# 1010 0000 z 1 0
# 1010 0001 z 1 0
# 1010 0010 z 1 0
# 1010 0011 z 1 0
# 1010 0100 z 1 0
# 1010 0101 z 1 0
# 1010 0110 z 1 0
# 1010 0111 z 1 0
# 1010 1000 z 1 0
# 1010 1001 z 1 0
# 1010 1010 z 0 0
# 1010 1011 z 1 0
# 1010 1100 z 1 0
# 1010 1101 z 1 0
# 1010 1110 z 1 0
# 1010 1111 z 1 0
# 1011 0000 z 1 0
# 1011 0001 z 1 0
# 1011 0010 z 1 0
# 1011 0011 z 1 0
# 1011 0100 z 1 0
# 1011 0101 z 1 0
# 1011 0110 z 1 0
# 1011 0111 z 1 0
# 1011 1000 z 1 0
# 1011 1001 z 1 0
# 1011 1010 z 0 1
# 1011 1011 z 0 0
# 1011 1100 z 1 0
# 1011 1101 z 1 0
# 1011 1110 z 1 0
# 1011 1111 z 1 0
# 1100 0000 z 1 0
# 1100 0001 z 1 0
# 1100 0010 z 1 0
# 1100 0011 z 1 0
# 1100 0100 z 1 0
# 1100 0101 z 1 0
# 1100 0110 z 1 0
# 1100 0111 z 1 0
# 1100 1000 z 0 1
# 1100 1001 z 0 1
# 1100 1010 z 0 1
# 1100 1011 z 0 1
# 1100 1100 z 0 0
# 1100 1101 z 0 1
# 1100 1110 z 0 1
# 1100 1111 z 0 1
# 1101 0000 z 1 0
# 1101 0001 z 1 0
# 1101 0010 z 1 0
# 1101 0011 z 1 0
# 1101 0100 z 1 0
# 1101 0101 z 1 0
# 1101 0110 z 1 0
# 1101 0111 z 1 0
# 1101 1000 z 0 1
# 1101 1001 z 0 1
# 1101 1010 z 0 1
# 1101 1011 z 0 1
# 1101 1100 z 1 0
# 1101 1101 z 0 0
# 1101 1110 z 0 1
# 1101 1111 z 0 1
# 1110 0000 z 1 0
# 1110 0001 z 1 0
# 1110 0010 z 1 0
# 1110 0011 z 1 0
# 1110 0100 z 1 0
# 1110 0101 z 1 0
# 1110 0110 z 1 0
# 1110 0111 z 1 0
# 1110 1000 z 0 1
# 1110 1001 z 0 1
# 1110 1010 z 0 1
# 1110 1011 z 0 1
# 1110 1100 z 1 0
# 1110 1101 z 1 0
# 1110 1110 z 0 0
# 1110 1111 z 1 0
# 1111 0000 z 1 0
# 1111 0001 z 1 0
# 1111 0010 z 1 0
# 1111 0011 z 1 0
# 1111 0100 z 1 0
# 1111 0101 z 1 0
# 1111 0110 z 1 0
# 1111 0111 z 1 0
# 1111 1000 z 0 1
# 1111 1001 z 0 1
# 1111 1010 z 0 1
# 1111 1011 z 0 1
# 1111 1100 z 1 0
# 1111 1101 z 1 0
# 1111 1110 z 0 1
# 1111 1111 z 0 0
# End time: 17:10:40 on Nov 05,2023, Elapsed time: 0:00:02
# Errors: 0, Warnings: 0
do cmp2b.txt
# cmp2b.v
# cmp4b_tb
# Model Technology ModelSim - Intel FPGA Edition vlog 10.5b Compiler 2016.10 Oct  5 2016
# Start time: 17:11:46 on Nov 05,2023
# vlog -reportprogress 300 cmp2b.v 
# -- Compiling module cmp2b
# -- Compiling module cmp4b
# -- Compiling module cmp4b_tb
# 
# Top level modules:
# 	cmp4b_tb
# End time: 17:11:46 on Nov 05,2023, Elapsed time: 0:00:00
# Errors: 0, Warnings: 0
# vsim -voptargs="+acc" cmp4b_tb 
# Start time: 17:11:46 on Nov 05,2023
# Loading work.cmp4b_tb
# Loading work.cmp4b
# Loading work.cmp2b
# 0000 0000 z 0 0
# 0000 0001 z 0 1
# 0000 0010 z 0 1
# 0000 0011 z 0 1
# 0000 0100 z 0 1
# 0000 0101 z 0 1
# 0000 0110 z 0 1
# 0000 0111 z 0 1
# 0000 1000 z 0 1
# 0000 1001 z 0 1
# 0000 1010 z 0 1
# 0000 1011 z 0 1
# 0000 1100 z 0 1
# 0000 1101 z 0 1
# 0000 1110 z 0 1
# 0000 1111 z 0 1
# 0001 0000 z 1 0
# 0001 0001 z 0 0
# 0001 0010 z 0 1
# 0001 0011 z 0 1
# 0001 0100 z 0 1
# 0001 0101 z 0 1
# 0001 0110 z 0 1
# 0001 0111 z 0 1
# 0001 1000 z 0 1
# 0001 1001 z 0 1
# 0001 1010 z 0 1
# 0001 1011 z 0 1
# 0001 1100 z 0 1
# 0001 1101 z 0 1
# 0001 1110 z 0 1
# 0001 1111 z 0 1
# 0010 0000 z 1 0
# 0010 0001 z 1 0
# 0010 0010 z 0 0
# 0010 0011 z 1 0
# 0010 0100 z 0 1
# 0010 0101 z 0 1
# 0010 0110 z 0 1
# 0010 0111 z 0 1
# 0010 1000 z 0 1
# 0010 1001 z 0 1
# 0010 1010 z 0 1
# 0010 1011 z 0 1
# 0010 1100 z 0 1
# 0010 1101 z 0 1
# 0010 1110 z 0 1
# 0010 1111 z 0 1
# 0011 0000 z 1 0
# 0011 0001 z 1 0
# 0011 0010 z 0 1
# 0011 0011 z 0 0
# 0011 0100 z 0 1
# 0011 0101 z 0 1
# 0011 0110 z 0 1
# 0011 0111 z 0 1
# 0011 1000 z 0 1
# 0011 1001 z 0 1
# 0011 1010 z 0 1
# 0011 1011 z 0 1
# 0011 1100 z 0 1
# 0011 1101 z 0 1
# 0011 1110 z 0 1
# 0011 1111 z 0 1
# 0100 0000 z 1 0
# 0100 0001 z 1 0
# 0100 0010 z 1 0
# 0100 0011 z 1 0
# 0100 0100 z 0 0
# 0100 0101 z 0 1
# 0100 0110 z 0 1
# 0100 0111 z 0 1
# 0100 1000 z 0 1
# 0100 1001 z 0 1
# 0100 1010 z 0 1
# 0100 1011 z 0 1
# 0100 1100 z 0 1
# 0100 1101 z 0 1
# 0100 1110 z 0 1
# 0100 1111 z 0 1
# 0101 0000 z 1 0
# 0101 0001 z 1 0
# 0101 0010 z 1 0
# 0101 0011 z 1 0
# 0101 0100 z 1 0
# 0101 0101 z 0 0
# 0101 0110 z 0 1
# 0101 0111 z 0 1
# 0101 1000 z 0 1
# 0101 1001 z 0 1
# 0101 1010 z 0 1
# 0101 1011 z 0 1
# 0101 1100 z 0 1
# 0101 1101 z 0 1
# 0101 1110 z 0 1
# 0101 1111 z 0 1
# 0110 0000 z 1 0
# 0110 0001 z 1 0
# 0110 0010 z 1 0
# 0110 0011 z 1 0
# 0110 0100 z 1 0
# 0110 0101 z 1 0
# 0110 0110 z 0 0
# 0110 0111 z 1 0
# 0110 1000 z 0 1
# 0110 1001 z 0 1
# 0110 1010 z 0 1
# 0110 1011 z 0 1
# 0110 1100 z 0 1
# 0110 1101 z 0 1
# 0110 1110 z 0 1
# 0110 1111 z 0 1
# 0111 0000 z 1 0
# 0111 0001 z 1 0
# 0111 0010 z 1 0
# 0111 0011 z 1 0
# 0111 0100 z 1 0
# 0111 0101 z 1 0
# 0111 0110 z 0 1
# 0111 0111 z 0 0
# 0111 1000 z 0 1
# 0111 1001 z 0 1
# 0111 1010 z 0 1
# 0111 1011 z 0 1
# 0111 1100 z 0 1
# 0111 1101 z 0 1
# 0111 1110 z 0 1
# 0111 1111 z 0 1
# 1000 0000 z 1 0
# 1000 0001 z 1 0
# 1000 0010 z 1 0
# 1000 0011 z 1 0
# 1000 0100 z 1 0
# 1000 0101 z 1 0
# 1000 0110 z 1 0
# 1000 0111 z 1 0
# 1000 1000 z 0 0
# 1000 1001 z 0 1
# 1000 1010 z 0 1
# 1000 1011 z 0 1
# 1000 1100 z 1 0
# 1000 1101 z 1 0
# 1000 1110 z 1 0
# 1000 1111 z 1 0
# 1001 0000 z 1 0
# 1001 0001 z 1 0
# 1001 0010 z 1 0
# 1001 0011 z 1 0
# 1001 0100 z 1 0
# 1001 0101 z 1 0
# 1001 0110 z 1 0
# 1001 0111 z 1 0
# 1001 1000 z 1 0
# 1001 1001 z 0 0
# 1001 1010 z 0 1
# 1001 1011 z 0 1
# 1001 1100 z 1 0
# 1001 1101 z 1 0
# 1001 1110 z 1 0
# 1001 1111 z 1 0
# 1010 0000 z 1 0
# 1010 0001 z 1 0
# 1010 0010 z 1 0
# 1010 0011 z 1 0
# 1010 0100 z 1 0
# 1010 0101 z 1 0
# 1010 0110 z 1 0
# 1010 0111 z 1 0
# 1010 1000 z 1 0
# 1010 1001 z 1 0
# 1010 1010 z 0 0
# 1010 1011 z 1 0
# 1010 1100 z 1 0
# 1010 1101 z 1 0
# 1010 1110 z 1 0
# 1010 1111 z 1 0
# 1011 0000 z 1 0
# 1011 0001 z 1 0
# 1011 0010 z 1 0
# 1011 0011 z 1 0
# 1011 0100 z 1 0
# 1011 0101 z 1 0
# 1011 0110 z 1 0
# 1011 0111 z 1 0
# 1011 1000 z 1 0
# 1011 1001 z 1 0
# 1011 1010 z 0 1
# 1011 1011 z 0 0
# 1011 1100 z 1 0
# 1011 1101 z 1 0
# 1011 1110 z 1 0
# 1011 1111 z 1 0
# 1100 0000 z 1 0
# 1100 0001 z 1 0
# 1100 0010 z 1 0
# 1100 0011 z 1 0
# 1100 0100 z 1 0
# 1100 0101 z 1 0
# 1100 0110 z 1 0
# 1100 0111 z 1 0
# 1100 1000 z 0 1
# 1100 1001 z 0 1
# 1100 1010 z 0 1
# 1100 1011 z 0 1
# 1100 1100 z 0 0
# 1100 1101 z 0 1
# 1100 1110 z 0 1
# 1100 1111 z 0 1
# 1101 0000 z 1 0
# 1101 0001 z 1 0
# 1101 0010 z 1 0
# 1101 0011 z 1 0
# 1101 0100 z 1 0
# 1101 0101 z 1 0
# 1101 0110 z 1 0
# 1101 0111 z 1 0
# 1101 1000 z 0 1
# 1101 1001 z 0 1
# 1101 1010 z 0 1
# 1101 1011 z 0 1
# 1101 1100 z 1 0
# 1101 1101 z 0 0
# 1101 1110 z 0 1
# 1101 1111 z 0 1
# 1110 0000 z 1 0
# 1110 0001 z 1 0
# 1110 0010 z 1 0
# 1110 0011 z 1 0
# 1110 0100 z 1 0
# 1110 0101 z 1 0
# 1110 0110 z 1 0
# 1110 0111 z 1 0
# 1110 1000 z 0 1
# 1110 1001 z 0 1
# 1110 1010 z 0 1
# 1110 1011 z 0 1
# 1110 1100 z 1 0
# 1110 1101 z 1 0
# 1110 1110 z 0 0
# 1110 1111 z 1 0
# 1111 0000 z 1 0
# 1111 0001 z 1 0
# 1111 0010 z 1 0
# 1111 0011 z 1 0
# 1111 0100 z 1 0
# 1111 0101 z 1 0
# 1111 0110 z 1 0
# 1111 0111 z 1 0
# 1111 1000 z 0 1
# 1111 1001 z 0 1
# 1111 1010 z 0 1
# 1111 1011 z 0 1
# 1111 1100 z 1 0
# 1111 1101 z 1 0
# 1111 1110 z 0 1
# 1111 1111 z 0 0
# End time: 17:11:49 on Nov 05,2023, Elapsed time: 0:00:03
# Errors: 0, Warnings: 0
do cmp2b.txt
# cmp2b.v
# cmp4b_tb
# Model Technology ModelSim - Intel FPGA Edition vlog 10.5b Compiler 2016.10 Oct  5 2016
# Start time: 17:13:29 on Nov 05,2023
# vlog -reportprogress 300 cmp2b.v 
# -- Compiling module cmp2b
# -- Compiling module cmp4b
# -- Compiling module cmp4b_tb
# 
# Top level modules:
# 	cmp4b_tb
# End time: 17:13:29 on Nov 05,2023, Elapsed time: 0:00:00
# Errors: 0, Warnings: 0
# vsim -voptargs="+acc" cmp4b_tb 
# Start time: 17:13:29 on Nov 05,2023
# Loading work.cmp4b_tb
# Loading work.cmp4b
# Loading work.cmp2b
# 0000 0000 1 0 0
# 0000 0001 1 0 1
# 0000 0010 1 0 1
# 0000 0011 1 0 1
# 0000 0100 1 0 1
# 0000 0101 0 0 1
# 0000 0110 0 0 1
# 0000 0111 0 0 1
# 0000 1000 1 0 1
# 0000 1001 0 0 1
# 0000 1010 0 0 1
# 0000 1011 0 0 1
# 0000 1100 1 0 1
# 0000 1101 0 0 1
# 0000 1110 0 0 1
# 0000 1111 0 0 1
# 0001 0000 1 1 0
# 0001 0001 1 0 0
# 0001 0010 1 0 1
# 0001 0011 1 0 1
# 0001 0100 0 0 1
# 0001 0101 1 0 1
# 0001 0110 0 0 1
# 0001 0111 0 0 1
# 0001 1000 0 0 1
# 0001 1001 1 0 1
# 0001 1010 0 0 1
# 0001 1011 0 0 1
# 0001 1100 0 0 1
# 0001 1101 1 0 1
# 0001 1110 0 0 1
# 0001 1111 0 0 1
# 0010 0000 1 1 0
# 0010 0001 1 1 0
# 0010 0010 1 0 0
# 0010 0011 1 1 0
# 0010 0100 0 0 1
# 0010 0101 0 0 1
# 0010 0110 1 0 1
# 0010 0111 0 0 1
# 0010 1000 0 0 1
# 0010 1001 0 0 1
# 0010 1010 1 0 1
# 0010 1011 0 0 1
# 0010 1100 0 0 1
# 0010 1101 0 0 1
# 0010 1110 1 0 1
# 0010 1111 0 0 1
# 0011 0000 1 1 0
# 0011 0001 1 1 0
# 0011 0010 1 0 1
# 0011 0011 1 0 0
# 0011 0100 0 0 1
# 0011 0101 0 0 1
# 0011 0110 0 0 1
# 0011 0111 1 0 1
# 0011 1000 0 0 1
# 0011 1001 0 0 1
# 0011 1010 0 0 1
# 0011 1011 1 0 1
# 0011 1100 0 0 1
# 0011 1101 0 0 1
# 0011 1110 0 0 1
# 0011 1111 1 0 1
# 0100 0000 1 1 0
# 0100 0001 0 1 0
# 0100 0010 0 1 0
# 0100 0011 0 1 0
# 0100 0100 1 0 0
# 0100 0101 1 0 1
# 0100 0110 1 0 1
# 0100 0111 1 0 1
# 0100 1000 1 0 1
# 0100 1001 0 0 1
# 0100 1010 0 0 1
# 0100 1011 0 0 1
# 0100 1100 1 0 1
# 0100 1101 0 0 1
# 0100 1110 0 0 1
# 0100 1111 0 0 1
# 0101 0000 0 1 0
# 0101 0001 1 1 0
# 0101 0010 0 1 0
# 0101 0011 0 1 0
# 0101 0100 1 1 0
# 0101 0101 1 0 0
# 0101 0110 1 0 1
# 0101 0111 1 0 1
# 0101 1000 0 0 1
# 0101 1001 1 0 1
# 0101 1010 0 0 1
# 0101 1011 0 0 1
# 0101 1100 0 0 1
# 0101 1101 1 0 1
# 0101 1110 0 0 1
# 0101 1111 0 0 1
# 0110 0000 0 1 0
# 0110 0001 0 1 0
# 0110 0010 1 1 0
# 0110 0011 0 1 0
# 0110 0100 1 1 0
# 0110 0101 1 1 0
# 0110 0110 1 0 0
# 0110 0111 1 1 0
# 0110 1000 0 0 1
# 0110 1001 0 0 1
# 0110 1010 1 0 1
# 0110 1011 0 0 1
# 0110 1100 0 0 1
# 0110 1101 0 0 1
# 0110 1110 1 0 1
# 0110 1111 0 0 1
# 0111 0000 0 1 0
# 0111 0001 0 1 0
# 0111 0010 0 1 0
# 0111 0011 1 1 0
# 0111 0100 1 1 0
# 0111 0101 1 1 0
# 0111 0110 1 0 1
# 0111 0111 1 0 0
# 0111 1000 0 0 1
# 0111 1001 0 0 1
# 0111 1010 0 0 1
# 0111 1011 1 0 1
# 0111 1100 0 0 1
# 0111 1101 0 0 1
# 0111 1110 0 0 1
# 0111 1111 1 0 1
# 1000 0000 1 1 0
